[
    {
        "stackName": "BASEOBJECT", 
        "children": [
            {
                "FRAMES HIGH": "0", 
                "WIDTH": 10.0, 
                "NAME": "Rings", 
                "VISIBLE": true, 
                "FRAMES WIDE": "0", 
                "RENDER STYLE": "Additive", 
                "TEXTURE": "media/particles/textures/ray/waterwake.dds", 
                "children": [], 
                "stackName": "PROPERTIES", 
                "DESCRIPTOR": "Particle", 
                "LENGTH": 1.0, 
                "RENDER TYPE": "Billboard Up", 
                "PARENTID": "-1", 
                "SORT INDEX": "1", 
                "ID": "8091354663350243806"
            }, 
            {
                "stackName": "CHILDREN", 
                "children": [
                    {
                        "stackName": "BASEOBJECT", 
                        "children": [
                            {
                                "stackName": "PROPERTIES", 
                                "DESCRIPTOR": "Color", 
                                "NAME": "Color4_clone4", 
                                "PARENTID": "8091354663350243806", 
                                "COLOR OVER TIME": "0,0,0,0,1,0.148148,0.180392,0.2,0.211765,1,1,0,0,0,1", 
                                "ID": "8091354667645211102", 
                                "children": []
                            }, 
                            {
                                "stackName": "CHILDREN", 
                                "children": []
                            }
                        ]
                    }, 
                    {
                        "stackName": "BASEOBJECT", 
                        "children": [
                            {
                                "stackName": "PROPERTIES", 
                                "DESCRIPTOR": "Texture Rotate", 
                                "NAME": "Texture Rotate5_clone5", 
                                "PARENTID": "8091354663350243806", 
                                "ROTATION SPEED": "0,0", 
                                "STARTING ROTATION": "1,0,360", 
                                "USE OWN ROTATION": true, 
                                "ID": "8091354671940178398", 
                                "children": []
                            }, 
                            {
                                "stackName": "CHILDREN", 
                                "children": []
                            }
                        ]
                    }, 
                    {
                        "stackName": "BASEOBJECT", 
                        "children": [
                            {
                                "POSITIONZ": 0.0, 
                                "POSITIONX": 0.0, 
                                "POSITIONY": 0.1, 
                                "MIN RADIUS": "0,0", 
                                "NAME": "Emitter6_clone6", 
                                "MAX RADIUS": "0,0.2", 
                                "children": [], 
                                "stackName": "PROPERTIES", 
                                "DESCRIPTOR": "Emitter", 
                                "DEPTH": "0,0", 
                                "HEIGHT_": 0.0, 
                                "SCALE ON LAUNCH": "0,1", 
                                "PARENTID": "8091354663350243806", 
                                "EMIT RATE": "1,0,3", 
                                "VELOCITY": "0,0", 
                                "FIXED_": false, 
                                "PARTICLE LIFE": "1,3,4", 
                                "ID": "8091354676235145694"
                            }, 
                            {
                                "stackName": "CHILDREN", 
                                "children": []
                            }
                        ]
                    }, 
                    {
                        "stackName": "BASEOBJECT", 
                        "children": [
                            {
                                "stackName": "PROPERTIES", 
                                "DESCRIPTOR": "Scale", 
                                "NAME": "Scale8_clone8", 
                                "PARENTID": "8091354663350243806", 
                                "X": "3,0,0.502,0.204,2.851,1,4.5", 
                                "FIXED": true, 
                                "ID": "8091354680530112990", 
                                "children": []
                            }, 
                            {
                                "stackName": "CHILDREN", 
                                "children": []
                            }
                        ]
                    }
                ]
            }
        ]
    }
]