%YAML 1.1
%TAG !u! tag:unity3d.com,2011:
--- !u!21 &2100000
Material:
  serializedVersion: 3
  m_ObjectHideFlags: 0
  m_PrefabParentObject: {fileID: 0}
  m_PrefabInternal: {fileID: 0}
  m_Name: WATER_Base
  m_Shader: {fileID: 4800000, guid: 956ae547eac7a45ec9f14257dea47559, type: 3}
  m_ShaderKeywords: []
  m_CustomRenderQueue: -1
  m_SavedProperties:
    serializedVersion: 2
    m_TexEnvs:
      data:
        first:
          name: _MainTex
        second:
          m_Texture: {fileID: 2800000, guid: 4dfcde4225a4b4115b78d0533fa0124e, type: 3}
          m_Scale: {x: 1, y: 1}
          m_Offset: {x: 0, y: 0}
      data:
        first:
          name: _AnimTex
        second:
          m_Texture: {fileID: 2800000, guid: 04f68ed90c3d043d79162fa91ffe0df3, type: 3}
          m_Scale: {x: 1, y: 1}
          m_Offset: {x: 0, y: 0}
    m_Floats:
      data:
        first:
          name: _Freq_X
        second: .0700000003
      data:
        first:
          name: _Amplitude_X
        second: -.200000003
      data:
        first:
          name: _Freq_Y
        second: .0599999987
      data:
        first:
          name: _Amplitude_Y
        second: -.239999995
      data:
        first:
          name: _Freq_X1
        second: .0199999996
      data:
        first:
          name: _Amplitude_X1
        second: .0500000007
      data:
        first:
          name: _Freq_Y1
        second: .0199999996
      data:
        first:
          name: _Amplitude_Y1
        second: .0500000007
      data:
        first:
          name: _rotate
        second: 55
      data:
        first:
          name: _scaleX
        second: 1
      data:
        first:
          name: _scaleY
        second: 1
      data:
        first:
          name: _rotate2
        second: 55
    m_Colors:
      data:
        first:
          name: _Color
        second: {r: 1, g: 1, b: 1, a: 1}
