%YAML 1.1
%TAG !u! tag:unity3d.com,2011:
--- !u!1 &195144
GameObject:
  m_ObjectHideFlags: 0
  m_PrefabParentObject: {fileID: 0}
  m_PrefabInternal: {fileID: 100100000}
  serializedVersion: 4
  m_Component:
  - 4: {fileID: 495144}
  - 33: {fileID: 3395144}
  - 23: {fileID: 2395144}
  - 64: {fileID: 6495144}
  m_Layer: 0
  m_Name: lava_exit_stairs_01
  m_TagString: Untagged
  m_Icon: {fileID: 0}
  m_NavMeshLayer: 0
  m_StaticEditorFlags: 0
  m_IsActive: 1
--- !u!4 &495144
Transform:
  m_ObjectHideFlags: 1
  m_PrefabParentObject: {fileID: 0}
  m_PrefabInternal: {fileID: 100100000}
  m_GameObject: {fileID: 195144}
  m_LocalRotation: {x: -.707106709, y: -3.09086161e-08, z: 3.09086232e-08, w: .707106829}
  m_LocalPosition: {x: -0, y: 0, z: 0}
  m_LocalScale: {x: 1, y: 1, z: 1}
  m_Children: []
  m_Father: {fileID: 0}
  m_RootOrder: 0
--- !u!23 &2395144
Renderer:
  m_ObjectHideFlags: 1
  m_PrefabParentObject: {fileID: 0}
  m_PrefabInternal: {fileID: 100100000}
  m_GameObject: {fileID: 195144}
  m_Enabled: 1
  m_CastShadows: 1
  m_ReceiveShadows: 1
  m_LightmapIndex: 255
  m_LightmapTilingOffset: {x: 1, y: 1, z: 0, w: 0}
  m_Materials:
  - {fileID: 2100000, guid: b5746a52a2dab4ded8fe242645c20b56, type: 2}
  - {fileID: 2100000, guid: 84aa9532aad3b47178ea3668d926c696, type: 2}
  - {fileID: 2100000, guid: 0461e78a40a794152857fb1a50f23c09, type: 2}
  - {fileID: 2100000, guid: 2284bb66b07034e47a885d2e02a72255, type: 2}
  - {fileID: 2100000, guid: ebd0f0044046949df82f31c67f2f3149, type: 2}
  - {fileID: 2100000, guid: e1ae56fcc0f584668ad5dd50682c91fe, type: 2}
  - {fileID: 2100000, guid: 8289469e2348b4e5b854fcf226465d0f, type: 2}
  m_SubsetIndices: 
  m_StaticBatchRoot: {fileID: 0}
  m_UseLightProbes: 0
  m_LightProbeAnchor: {fileID: 0}
  m_ScaleInLightmap: 1
  m_SortingLayerID: 0
  m_SortingOrder: 0
--- !u!33 &3395144
MeshFilter:
  m_ObjectHideFlags: 1
  m_PrefabParentObject: {fileID: 0}
  m_PrefabInternal: {fileID: 100100000}
  m_GameObject: {fileID: 195144}
  m_Mesh: {fileID: 4300000, guid: 0843acb8f9365448ca862dfb04ae7972, type: 3}
--- !u!64 &6495144
MeshCollider:
  m_ObjectHideFlags: 1
  m_PrefabParentObject: {fileID: 0}
  m_PrefabInternal: {fileID: 100100000}
  m_GameObject: {fileID: 195144}
  m_Material: {fileID: 0}
  m_IsTrigger: 0
  m_Enabled: 1
  serializedVersion: 2
  m_SmoothSphereCollisions: 0
  m_Convex: 0
  m_Mesh: {fileID: 4300000, guid: b5c3aa5e2e7a447d7976d07c8b10bb50, type: 3}
--- !u!1001 &100100000
Prefab:
  m_ObjectHideFlags: 1
  serializedVersion: 2
  m_Modification:
    m_TransformParent: {fileID: 0}
    m_Modifications: []
    m_RemovedComponents: []
  m_ParentPrefab: {fileID: 0}
  m_RootGameObject: {fileID: 195144}
  m_IsPrefabParent: 1
  m_IsExploded: 1
