%YAML 1.1
%TAG !u! tag:unity3d.com,2011:
--- !u!1 &136434
GameObject:
  m_ObjectHideFlags: 0
  m_PrefabParentObject: {fileID: 0}
  m_PrefabInternal: {fileID: 100100000}
  serializedVersion: 4
  m_Component:
  - 4: {fileID: 436434}
  - 114: {fileID: 11436434}
  m_Layer: 0
  m_Name: brazier_02
  m_TagString: Untagged
  m_Icon: {fileID: 0}
  m_NavMeshLayer: 0
  m_StaticEditorFlags: 0
  m_IsActive: 1
--- !u!4 &436434
Transform:
  m_ObjectHideFlags: 1
  m_PrefabParentObject: {fileID: 0}
  m_PrefabInternal: {fileID: 100100000}
  m_GameObject: {fileID: 136434}
  m_LocalRotation: {x: 0, y: 0, z: 0, w: 1}
  m_LocalPosition: {x: .333984375, y: .468017578, z: -.00396728516}
  m_LocalScale: {x: 1, y: 1, z: 1}
  m_Children: []
  m_Father: {fileID: 0}
  m_RootOrder: 0
--- !u!114 &11436434
MonoBehaviour:
  m_ObjectHideFlags: 1
  m_PrefabParentObject: {fileID: 0}
  m_PrefabInternal: {fileID: 100100000}
  m_GameObject: {fileID: 136434}
  m_Enabled: 1
  m_EditorHideFlags: 0
  m_Script: {fileID: 11500000, guid: a17ac5ab57205493da9f37ed23e5a0cc, type: 3}
  m_Name: 
  m_EditorClassIdentifier: 
  parts:
  - g: {fileID: 174926, guid: 487d301e97f6e4386b36ce59b4048739, type: 2}
    pos: {x: 0, y: 0, z: 0}
  - g: {fileID: 140788, guid: 72b00f0360d924da488c6b9d4b4a6434, type: 2}
    pos: {x: 0, y: 0, z: 0}
  UpdateModel: 0
  CollectPos: 0
  Remove: 0
--- !u!1001 &100100000
Prefab:
  m_ObjectHideFlags: 1
  serializedVersion: 2
  m_Modification:
    m_TransformParent: {fileID: 0}
    m_Modifications: []
    m_RemovedComponents: []
  m_ParentPrefab: {fileID: 0}
  m_RootGameObject: {fileID: 136434}
  m_IsPrefabParent: 1
  m_IsExploded: 1
